<svg width="28" height="28" viewBox="0 0 28 28" fill="none" xmlns="http://www.w3.org/2000/svg">
<path d="M14.0001 3.99999C15.8334 3.99999 17.3334 5.49999 17.3334 7.33332C17.3334 9.16666 15.8334 10.6667 14.0001 10.6667C12.1667 10.6667 10.6667 9.16666 10.6667 7.33332C10.6667 5.49999 12.1667 3.99999 14.0001 3.99999ZM14.0001 20.6667C18.5001 20.6667 23.6667 22.8167 24.0001 24H4.00008C4.38341 22.8 9.51675 20.6667 14.0001 20.6667ZM14.0001 0.666656C10.3167 0.666656 7.33341 3.64999 7.33341 7.33332C7.33341 11.0167 10.3167 14 14.0001 14C17.6834 14 20.6667 11.0167 20.6667 7.33332C20.6667 3.64999 17.6834 0.666656 14.0001 0.666656ZM14.0001 17.3333C9.55008 17.3333 0.666748 19.5667 0.666748 24V27.3333H27.3334V24C27.3334 19.5667 18.4501 17.3333 14.0001 17.3333Z" fill="#DECB22"/>
</svg>
